\changetocdepth {3}
\babel@toc {czech}{}
\babel@toc {czech}{}
\babel@toc {english}{}
\babel@toc {czech}{}
\babel@toc {english}{}
\babel@toc {czech}{}
\contentsline {chapter}{{\' U}vod}{1}{chapter*.5}% 
\contentsline {chapter}{\chapternumberline {1}C\IeC {\'\i }l pr\IeC {\'a}ce}{3}{chapter.1}% 
\contentsline {chapter}{\chapternumberline {2}Anal\IeC {\'y}za a n\IeC {\'a}vrh}{5}{chapter.2}% 
\contentsline {chapter}{\chapternumberline {3}Realizace}{7}{chapter.3}% 
\contentsline {chapter}{Z{\' a}v{\v e}r}{9}{chapter*.6}% 
\contentsline {appendix}{\chapternumberline {A}Seznam pou\IeC {\v z}it\IeC {\'y}ch zkratek}{11}{appendix.A}% 
\contentsline {appendix}{\chapternumberline {B}Obsah p\IeC {\v r}ilo\IeC {\v z}en\IeC {\'e}ho CD}{13}{appendix.B}% 
