# Fdb version 3
["bibtex Sablona_BP_UTF-8"] 0 "Sablona_BP_UTF-8.aux" "Sablona_BP_UTF-8.bbl" "Sablona_BP_UTF-8" 0
  "./csn690.bst" 1539081145 32964 9f2b531f059ab5924f9759ef92dcb90c ""
  "Sablona_BP_UTF-8.aux" 0 -1 0 ""
  "mybibliographyfile.bib" 1539081145 1216 5646ed87e03d536ea6c47f9ece77d62e ""
  (generated)
  "Sablona_BP_UTF-8.blg"
  "Sablona_BP_UTF-8.bbl"
["pdflatex"] 1553846611 "c:/Users/petrs/Desktop/bakalarska-prace/Text/Sablona_BP_UTF-8.tex" "c:/Users/petrs/Desktop/bakalarska-prace/Text/Sablona_BP_UTF-8.pdf" "Sablona_BP_UTF-8" 1553846611
  "FITthesis.cls" 1552336509 35229 52c40584639fa585dd617cd18d5eba7a ""
  "Sablona_BP_UTF-8.aux" 0 -1 0 ""
  "Sablona_BP_UTF-8.bbl" 0 -1 0 "bibtex Sablona_BP_UTF-8"
  "Sablona_BP_UTF-8.out" 0 -1 0 ""
  "Sablona_BP_UTF-8.tex" 1553846430 10120 b9aa0c3e6362475a7544c54f97c435ad ""
  "c:/Users/petrs/Desktop/bakalarska-prace/Text/Sablona_BP_UTF-8.aux" 1553846611 9 a94a2480d3289e625eea47cd1b285758 ""
  "c:/Users/petrs/Desktop/bakalarska-prace/Text/Sablona_BP_UTF-8.tex" 1553846430 10120 b9aa0c3e6362475a7544c54f97c435ad ""
  "c:/texlive/2018/texmf-dist/fonts/enc/dvips/lm/lm-mathsy.enc" 1553842532 2840 216e6e45ad352e2456e1149f28885bee ""
  "c:/texlive/2018/texmf-dist/fonts/enc/dvips/lm/lm-rm.enc" 1553842532 2327 9d6df24f9c4f7368395224341a95523a ""
  "c:/texlive/2018/texmf-dist/fonts/enc/dvips/lm/lm-rmsc.enc" 1553842532 2355 3e74b90173fc699673a5163cee277702 ""
  "c:/texlive/2018/texmf-dist/fonts/enc/dvips/lm/lm-rmtt.enc" 1553842532 2359 de53213020575850c8f8debc35095765 ""
  "c:/texlive/2018/texmf-dist/fonts/map/fontname/texfonts.map" 1553841736 3332 103109f5612ad95229751940c61aada0 ""
  "c:/texlive/2018/texmf-dist/fonts/tfm/public/cm/cmr10.tfm" 1553840865 1296 45809c5a464d5f32c8f98ba97c1bb47f ""
  "c:/texlive/2018/texmf-dist/fonts/tfm/public/cm/cmr9.tfm" 1553840865 1292 6b21b9c2c7bebb38aa2273f7ca0fb3af ""
  "c:/texlive/2018/texmf-dist/fonts/tfm/public/lm/lmex10.tfm" 1553842534 992 ce925c9346c7613270a79afbee98c070 ""
  "c:/texlive/2018/texmf-dist/fonts/tfm/public/lm/lmmi10.tfm" 1553842534 1528 6d36b2385e0ca062a654de6ac59cb34f ""
  "c:/texlive/2018/texmf-dist/fonts/tfm/public/lm/lmmi6.tfm" 1553842534 1512 94a3fd88c6f27dbd9ecb46987e297a4e ""
  "c:/texlive/2018/texmf-dist/fonts/tfm/public/lm/lmmi8.tfm" 1553842534 1520 a3fe5596932db2db2cbda300920dd4e9 ""
  "c:/texlive/2018/texmf-dist/fonts/tfm/public/lm/lmsy10.tfm" 1553842534 1308 02cc510f9dd6012e5815d0c0ffbf6869 ""
  "c:/texlive/2018/texmf-dist/fonts/tfm/public/lm/lmsy6.tfm" 1553842534 1300 b0605d44c16c22d99dc001808e4f24ea ""
  "c:/texlive/2018/texmf-dist/fonts/tfm/public/lm/lmsy8.tfm" 1553842534 1304 cdc9a17df9ef0d2dc320eff37bbab1c4 ""
  "c:/texlive/2018/texmf-dist/fonts/tfm/public/lm/rm-lmbx10.tfm" 1553842535 11880 35fcf136a2198418dfc53c83e9e2a07f ""
  "c:/texlive/2018/texmf-dist/fonts/tfm/public/lm/rm-lmbx12.tfm" 1553842535 11880 ea60d06924270684e6f852f3141c992b ""
  "c:/texlive/2018/texmf-dist/fonts/tfm/public/lm/rm-lmbxi10.tfm" 1553842535 17000 ee24f610e440d069ed0693c37a39a025 ""
  "c:/texlive/2018/texmf-dist/fonts/tfm/public/lm/rm-lmcsc10.tfm" 1553842535 11088 74137ed57ef5d28227a6f78692896bed ""
  "c:/texlive/2018/texmf-dist/fonts/tfm/public/lm/rm-lmr10.tfm" 1553842535 11868 4f81e9b6033c032bdaf9884f4d7ef412 ""
  "c:/texlive/2018/texmf-dist/fonts/tfm/public/lm/rm-lmr12.tfm" 1553842535 11888 6841b91e46b65cf41a49b160e6e74130 ""
  "c:/texlive/2018/texmf-dist/fonts/tfm/public/lm/rm-lmr17.tfm" 1553842535 11948 fa976674f030491ad35532a8a1e37325 ""
  "c:/texlive/2018/texmf-dist/fonts/tfm/public/lm/rm-lmr6.tfm" 1553842535 11836 e3b6ce3e601aec94f64a536e7f4224d5 ""
  "c:/texlive/2018/texmf-dist/fonts/tfm/public/lm/rm-lmr8.tfm" 1553842535 11864 309fd7f43e4a0ba39f6f7644d76e8edf ""
  "c:/texlive/2018/texmf-dist/fonts/tfm/public/lm/rm-lmri10.tfm" 1553842535 16968 1b588d0f410bd67a83eaecf8c64b2a43 ""
  "c:/texlive/2018/texmf-dist/fonts/tfm/public/lm/rm-lmssbx10.tfm" 1553842535 10956 dad25672db463289a56f0700c0488a86 ""
  "c:/texlive/2018/texmf-dist/fonts/tfm/public/lm/rm-lmtt10.tfm" 1553842535 1340 adaa94f9add991a099a6fc98bbb5f02c ""
  "c:/texlive/2018/texmf-dist/fonts/type1/public/amsfonts/cm/cmr10.pfb" 1553840336 35752 024fb6c41858982481f6968b5fc26508 ""
  "c:/texlive/2018/texmf-dist/fonts/type1/public/lm/lmbx10.pfb" 1553842537 121021 836464b5fe0c782d94085eb083550ccc ""
  "c:/texlive/2018/texmf-dist/fonts/type1/public/lm/lmbx12.pfb" 1553842537 116908 9a7a12d1e4df280ea0ab4aad83cdef88 ""
  "c:/texlive/2018/texmf-dist/fonts/type1/public/lm/lmbxi10.pfb" 1553842537 112766 6259d69aa3d87a505f375e49d8f6bf3a ""
  "c:/texlive/2018/texmf-dist/fonts/type1/public/lm/lmcsc10.pfb" 1553842537 116427 4909e80035dae5d5a4ec2b5ddd9649dd ""
  "c:/texlive/2018/texmf-dist/fonts/type1/public/lm/lmr10.pfb" 1553842538 119235 05e5c8d6d60439433e50047898c2c0e0 ""
  "c:/texlive/2018/texmf-dist/fonts/type1/public/lm/lmr12.pfb" 1553842538 113634 9384aebdf26f9881e046a4b5574566db ""
  "c:/texlive/2018/texmf-dist/fonts/type1/public/lm/lmr8.pfb" 1553842538 122174 a2d5e73f396ddbeb3bdf5c79aea0993d ""
  "c:/texlive/2018/texmf-dist/fonts/type1/public/lm/lmri10.pfb" 1553842538 112593 fda2373ba4420af33949610de4c28fe8 ""
  "c:/texlive/2018/texmf-dist/fonts/type1/public/lm/lmssbx10.pfb" 1553842538 119663 1a3a2206591ddc98c6d6c6271a282516 ""
  "c:/texlive/2018/texmf-dist/fonts/type1/public/lm/lmsy10.pfb" 1553842538 27863 09ce3735688ffde955e72da27c95b61a ""
  "c:/texlive/2018/texmf-dist/fonts/type1/public/lm/lmtt10.pfb" 1553842538 113227 d3d1adc024746ff57b20efba82c6d365 ""
  "c:/texlive/2018/texmf-dist/tex/context/base/mkii/supp-pdf.mkii" 1553842830 71627 94eb9990bed73c364d7f53f960cc8c5b ""
  "c:/texlive/2018/texmf-dist/tex/generic/babel-czech/czech.ldf" 1553840447 15910 20b36fee6c6cdcfa90232891da7a9f34 ""
  "c:/texlive/2018/texmf-dist/tex/generic/babel-english/english.ldf" 1553840449 7008 9ff5fdcc865b01beca2b0fe4a46231d4 ""
  "c:/texlive/2018/texmf-dist/tex/generic/babel/babel.def" 1553840436 74097 730193adbb112990f38051a05f35ac11 ""
  "c:/texlive/2018/texmf-dist/tex/generic/babel/babel.sty" 1553840436 16329 4c42e43c85185e6cb0936a628ade375c ""
  "c:/texlive/2018/texmf-dist/tex/generic/babel/switch.def" 1553840441 13310 fcb0ad08386d450f0c718feed9fe2fee ""
  "c:/texlive/2018/texmf-dist/tex/generic/babel/txtbabel.def" 1553840441 7435 6c566fc19b3503b2b2da8bb4550f2b58 ""
  "c:/texlive/2018/texmf-dist/tex/generic/dirtree/dirtree.sty" 1553841270 1883 4aee9c0e00b4a0c2729c07aa1ea41bad ""
  "c:/texlive/2018/texmf-dist/tex/generic/dirtree/dirtree.tex" 1553841270 5890 e9acda8da77544e04e1e6041a77a14c7 ""
  "c:/texlive/2018/texmf-dist/tex/generic/ifxetex/ifxetex.sty" 1553842063 1458 43ab4710dc82f3edeabecd0d099626b2 ""
  "c:/texlive/2018/texmf-dist/tex/generic/oberdiek/gettitlestring.sty" 1553843030 8237 3b62ef1f7e2c23a328c814b3893bc11f ""
  "c:/texlive/2018/texmf-dist/tex/generic/oberdiek/hobsub-generic.sty" 1553843030 185392 b99a6d53180e04300c35e18725f31231 ""
  "c:/texlive/2018/texmf-dist/tex/generic/oberdiek/hobsub-hyperref.sty" 1553843030 70864 bcd5b216757bd619ae692a151d90085d ""
  "c:/texlive/2018/texmf-dist/tex/generic/oberdiek/ifluatex.sty" 1553842057 7324 2310d1247db0114eb4726807c8837a0e ""
  "c:/texlive/2018/texmf-dist/tex/generic/oberdiek/ifpdf.sty" 1553843030 1300 96620a7d94bc0ceb261d968770ce8315 ""
  "c:/texlive/2018/texmf-dist/tex/latex/base/inputenc.sty" 1553842292 5052 b64c57f4a38aae0d2745f8298fa50814 ""
  "c:/texlive/2018/texmf-dist/tex/latex/etoolbox/etoolbox.sty" 1553841542 43865 f83cc2fa3767abdb988c7d2cd17c02bf ""
  "c:/texlive/2018/texmf-dist/tex/latex/graphics-cfg/graphics.cfg" 1553841924 1224 978390e9c2234eab29404bc21b268d1e ""
  "c:/texlive/2018/texmf-dist/tex/latex/graphics-def/pdftex.def" 1553841924 17334 520b9b85ad8a2a48eda3f643e27a5179 ""
  "c:/texlive/2018/texmf-dist/tex/latex/graphics/graphics.sty" 1553841922 15272 5a97061616e0c8b2aa79c6615ff769f4 ""
  "c:/texlive/2018/texmf-dist/tex/latex/graphics/graphicx.sty" 1553841922 9063 d0a305975932762117cd1f06a582f896 ""
  "c:/texlive/2018/texmf-dist/tex/latex/graphics/keyval.sty" 1553841922 2591 6404d0c7d28505fb38ce0d86c2e28ae7 ""
  "c:/texlive/2018/texmf-dist/tex/latex/graphics/trig.sty" 1553841922 3977 cb9221976ed8a183afad65b59aa8629a ""
  "c:/texlive/2018/texmf-dist/tex/latex/hyperref/hpdftex.def" 1553842016 51744 477aad43ad6a7ba8c462d20c3e0808e0 ""
  "c:/texlive/2018/texmf-dist/tex/latex/hyperref/hyperref.sty" 1553842016 236074 d994150943d35d6af0d586a60cc78dd1 ""
  "c:/texlive/2018/texmf-dist/tex/latex/hyperref/nameref.sty" 1553842016 12949 81e4e808884a8f0e276b69410e234656 ""
  "c:/texlive/2018/texmf-dist/tex/latex/hyperref/pd1enc.def" 1553842016 14098 b4e1ecab4699a0341b8e1349e4c53fb1 ""
  "c:/texlive/2018/texmf-dist/tex/latex/hyperref/puenc.def" 1553842016 122411 537c1e113664b098b6572dbc27a726af ""
  "c:/texlive/2018/texmf-dist/tex/latex/ifetex/ifetex.sty" 1553842056 1584 2696473ec8e751e1848d791d84b1e6e2 ""
  "c:/texlive/2018/texmf-dist/tex/latex/latexconfig/epstopdf-sys.cfg" 1553842360 678 4792914a8f45be57bb98413425e4c7af ""
  "c:/texlive/2018/texmf-dist/tex/latex/latexconfig/hyperref.cfg" 1553842360 235 6031e5765137be07eed51a510b2b8fb7 ""
  "c:/texlive/2018/texmf-dist/tex/latex/lm/lmodern.sty" 1553842538 1606 c17281c7cff2bbd7ff0173e1433487ec ""
  "c:/texlive/2018/texmf-dist/tex/latex/lm/omllmm.fd" 1553842538 888 44447a3a3af84a22454ef89500942d93 ""
  "c:/texlive/2018/texmf-dist/tex/latex/lm/omslmr.fd" 1553842538 1013 f8133048bddeed1bf1041c9d830a3723 ""
  "c:/texlive/2018/texmf-dist/tex/latex/lm/omslmsy.fd" 1553842538 805 af340a8260c447aa315cfc740ff0152f ""
  "c:/texlive/2018/texmf-dist/tex/latex/lm/omxlmex.fd" 1553842538 566 a94661f7b66063f191960bb7935b6ba2 ""
  "c:/texlive/2018/texmf-dist/tex/latex/lm/ot1lmr.fd" 1553842538 1880 bae7b659316f7344a86218ad38b01d91 ""
  "c:/texlive/2018/texmf-dist/tex/latex/lm/ot1lmss.fd" 1553842538 1655 27274ffd69942383838a2081fd5be3d1 ""
  "c:/texlive/2018/texmf-dist/tex/latex/lm/ot1lmtt.fd" 1553842538 2712 a8a977c98484ccc2dbc768e5509e3790 ""
  "c:/texlive/2018/texmf-dist/tex/latex/memoir/mem11.clo" 1553842712 4077 5d04a9cb96fd41142ce6975b19e59afd ""
  "c:/texlive/2018/texmf-dist/tex/latex/memoir/memhfixc.sty" 1553842713 11326 d0078f6d29fb198095ddc2651db4ce20 ""
  "c:/texlive/2018/texmf-dist/tex/latex/memoir/memoir.cls" 1553842713 408598 47c2a4c3d617c6e8ffc522b974f8af70 ""
  "c:/texlive/2018/texmf-dist/tex/latex/oberdiek/auxhook.sty" 1553843030 3834 4363110eb0ef1eb2b71c8fcbcdb6c357 ""
  "c:/texlive/2018/texmf-dist/tex/latex/oberdiek/epstopdf-base.sty" 1553843031 12095 5337833c991d80788a43d3ce26bd1c46 ""
  "c:/texlive/2018/texmf-dist/tex/latex/oberdiek/grfext.sty" 1553843031 7075 2fe3d848bba95f139de11ded085e74aa ""
  "c:/texlive/2018/texmf-dist/tex/latex/oberdiek/kvoptions.sty" 1553843031 22417 1d9df1eb66848aa31b18a593099cf45c ""
  "c:/texlive/2018/texmf-dist/tex/latex/oberdiek/rerunfilecheck.sty" 1553843031 9581 023642318cef9f4677efe364de1e2a27 ""
  "c:/texlive/2018/texmf-dist/tex/latex/tools/array.sty" 1553844286 12527 31ab547f6520657998ecf91709f950ac ""
  "c:/texlive/2018/texmf-dist/tex/latex/tools/dcolumn.sty" 1553844286 2755 a95af7253bb47cb72ad0ac110a442c52 ""
  "c:/texlive/2018/texmf-dist/tex/latex/tools/delarray.sty" 1553844286 2154 574ef5064ab1c358d44de907f2b33704 ""
  "c:/texlive/2018/texmf-dist/tex/latex/tools/tabularx.sty" 1553844286 7145 01b7b53bf69f5c0f63803657eb51217f ""
  "c:/texlive/2018/texmf-dist/tex/latex/url/url.sty" 1553844568 12796 8edb7d69a20b857904dd0ea757c14ec9 ""
  "c:/texlive/2018/texmf-dist/tex/plain/ifetex/ifetex.tex" 1553842056 1178 13842cd1b714a921af7920503db5625a ""
  "c:/texlive/2018/texmf-dist/web2c/texmf.cnf" 1553842241 35176 ce7fee66be1fb01dfc6b702a7dbfa0ea ""
  "c:/texlive/2018/texmf-var/fonts/map/pdftex/updmap/pdftex.map" 1553845005 3265573 655ac40406f2c37c0d9078d533adef20 ""
  "c:/texlive/2018/texmf-var/web2c/pdftex/pdflatex.fmt" 1553845182 4223237 5a31b2c698b4373172030ac4225d9b6a ""
  "c:/texlive/2018/texmf.cnf" 1553844963 673 4ae7b2f49cee444c5343a45b5d0f169c ""
  "cvut-logo-bw.pdf" 1539081145 12414 efff575ed8f0e3f8604fcadb2f793014 ""
  (generated)
  "Sablona_BP_UTF-8.out"
  "Sablona_BP_UTF-8.toc"
  "Sablona_BP_UTF-8.aux"
  "c:/Users/petrs/Desktop/bakalarska-prace/Text/Sablona_BP_UTF-8.pdf"
  "c:/Users/petrs/Desktop/bakalarska-prace/Text/Sablona_BP_UTF-8.log"
  "Sablona_BP_UTF-8.pdf"
  "Sablona_BP_UTF-8.log"
  "Sablona_BP_UTF-8.lof"
